<svg width="250" height="252" viewBox="0 0 250 252" fill="none" xmlns="http://www.w3.org/2000/svg">
<path fill-rule="evenodd" clip-rule="evenodd" d="M202.38 231.155C206.248 228.886 213.904 222.002 216.037 218.45C214.158 212.712 207.827 203.107 204.233 196.994L180.759 154.845C176.779 147.736 169.852 140.573 172.192 132.226C184.339 127.309 233.514 134.087 249.853 130.484L250 111.833L134.546 111.207C139.044 123.133 198.089 220.675 202.38 231.155Z" fill="black"/>
<path fill-rule="evenodd" clip-rule="evenodd" d="M0 130.942C12.1384 131.498 71.0863 128.895 76.2245 132.477C81.5303 136.891 74.9532 143.266 69.3422 154.197L45.9115 196.397C42.5056 202.495 35.9016 212.39 33.755 218.45C36.2849 222.922 42.4994 227.549 46.426 231.161C50.1905 228.134 60.489 207.888 63.687 202.062C79.978 172.392 99.1934 140.942 115.019 111.472L0.276929 111.217L0 130.942V130.942Z" fill="black"/>
<path fill-rule="evenodd" clip-rule="evenodd" d="M62.4238 243.171L78.3176 251.286C82.8348 241.183 119.821 175.752 121.75 174.877C131.155 174.118 133.052 183.819 137.002 190.721L172.309 251.172C175.834 250.169 185.075 244.374 188.128 242.095C186.424 238.074 183.082 233.267 180.768 228.977C178.448 224.673 175.343 219.302 173.034 215.548L123.841 134.386C122.5 135.805 124.102 133.657 122.237 136.233L77.7034 215.538C74.2059 221.595 63.8915 238.144 62.4238 243.171V243.171Z" fill="black"/>
<path fill-rule="evenodd" clip-rule="evenodd" d="M120.275 0.650595C87.0481 7.82101 94.8338 62.9433 131.378 55.4679C144.133 52.8587 155.405 39.1826 152.089 22.2499C149.458 8.81455 136.858 -2.92835 120.275 0.650595V0.650595Z" fill="black"/>
<path fill-rule="evenodd" clip-rule="evenodd" d="M119.25 102.753L133.376 102.768L133.669 78.9063C145.126 85.4429 149.628 102.848 159.837 102.871C164.689 102.883 171.015 103.161 175.667 102.632L176.157 65.4248L161.5 65.1604C160.636 71.5977 161.467 78.2401 161.232 84.1361L160.149 90.2674C154.816 83.7711 149.895 77.8691 144.621 72.0633C141.21 68.3101 141.041 65.3441 135.231 65.0412C130.508 64.7965 123.829 65.0193 119.03 65.2341C117.932 71.6133 118.157 99.2484 119.25 102.753V102.753Z" fill="black"/>
<path fill-rule="evenodd" clip-rule="evenodd" d="M44.6816 91.035C43.7058 94.7364 45.2871 93.6018 41.638 95.231C40.4722 95.7507 36.4929 95.7964 35.1039 95.7433C28.2513 95.4831 28.494 94.9428 25.7909 90.5932L11.4255 90.5226C12.5496 108.987 50.0469 102.988 56.41 98.7508C65.3713 92.7856 61.4437 84.7615 51.8422 81.752C41.9068 78.6376 31.7517 79.9763 28.6713 74.4249C32.2207 70.9207 39.5274 71.2503 43.6205 74.1088C47.7232 76.9732 49.5214 76.9596 59.2254 75.9081C59.6535 61.4335 26.7878 63.2066 16.9053 68.3973C11.2831 71.3512 7.59548 81.1734 20.5871 85.1889C28.4005 87.6031 37.8866 88.1157 44.6816 91.035Z" fill="black"/>
<path fill-rule="evenodd" clip-rule="evenodd" d="M202.215 88.2641C203.03 84.2131 208.148 76.5884 210.486 74.9281C213.08 79.5276 216.285 83.595 217.615 88.3095L202.215 88.2641V88.2641ZM178.278 102.693L193.419 102.81L196.785 95.6594L222.997 95.7258L226.038 102.437L242.381 102.614C238.914 94.1567 224.585 73.9137 219.482 65.2178L202.517 65.192C198.567 70.8813 180.049 98.1038 178.278 102.693V102.693Z" fill="black"/>
<path fill-rule="evenodd" clip-rule="evenodd" d="M67.7319 102.734L111.383 102.715L111.431 94.737L83.9543 94.5192L83.6507 87.3789L108.523 86.8159L108.574 79.6463C104.543 78.8758 100.067 79.3685 95.9543 79.4276C80.4239 79.6515 85.5872 80.6606 83.8627 76.5744C85.4071 72.8409 81.6197 73.5285 89.7089 73.4093L110.49 73.5026L110.676 65.6372L68.4131 65.1135L67.7319 102.734V102.734Z" fill="black"/>
</svg>
